\relax 
\providecommand\hyper@newdestlabel[2]{}
\providecommand\BKM@entry[2]{}
\providecommand*{\memsetcounter}[2]{}
\providecommand\HyperFirstAtBeginDocument{\AtBeginDocument}
\HyperFirstAtBeginDocument{\ifx\hyper@anchor\@undefined
\global\let\oldcontentsline\contentsline
\gdef\contentsline#1#2#3#4{\oldcontentsline{#1}{#2}{#3}}
\global\let\oldnewlabel\newlabel
\gdef\newlabel#1#2{\newlabelxx{#1}#2}
\gdef\newlabelxx#1#2#3#4#5#6{\oldnewlabel{#1}{{#2}{#3}}}
\AtEndDocument{\ifx\hyper@anchor\@undefined
\let\contentsline\oldcontentsline
\let\newlabel\oldnewlabel
\fi}
\fi}
\global\let\hyper@last\relax 
\gdef\HyperFirstAtBeginDocument#1{#1}
\providecommand\HyField@AuxAddToFields[1]{}
\providecommand\HyField@AuxAddToCoFields[2]{}
\catcode `:\active 
\catcode `;\active 
\catcode `!\active 
\catcode `?\active 
\catcode `"\active 
\catcode `<\active 
\catcode `>\active 
\@nameuse{es@quoting}
\citation{abnt-url-package=url}
\@writefile{toc}{\changetocdepth  {4}}
\select@language{brazil}
\@writefile{toc}{\select@language{brazil}}
\@writefile{lof}{\select@language{brazil}}
\@writefile{lot}{\select@language{brazil}}
\select@language{brazil}
\@writefile{toc}{\select@language{brazil}}
\@writefile{lof}{\select@language{brazil}}
\@writefile{lot}{\select@language{brazil}}
\BKM@entry{id=1,dest={6368617074657262322E30},srcline={182}}{41677261646563696D656E746F73}
\BKM@entry{id=2,dest={6368617074657262332E30},srcline={187}}{526573756D6F}
\BKM@entry{id=3,dest={73656374696F6E2A2E35},srcline={198}}{53756D5C33343172696F}
\@writefile{toc}{\contentsline {chapter}{Sum\'ario}{7}{section*.5}}
\BKM@entry{id=4,dest={636861707465722A2E36},srcline={202}}{496E74726F64755C3334375C3334336F}
\@writefile{toc}{\contentsline {chapter}{Introdu\IeC {\c c}\IeC {\~a}o}{8}{chapter*.6}}
\BKM@entry{id=5,dest={636861707465722E31},srcline={205}}{4F626A657469766F73}
\BKM@entry{id=6,dest={73656374696F6E2E312E31},srcline={208}}{476572616C}
\BKM@entry{id=7,dest={73656374696F6E2E312E32},srcline={211}}{45737065635C3335356669636F}
\@writefile{toc}{\contentsline {chapter}{\chapternumberline {1}Objetivos}{9}{chapter.1}}
\@writefile{toc}{\contentsline {section}{\numberline {1.1}Geral}{9}{section.1.1}}
\@writefile{toc}{\contentsline {section}{\numberline {1.2}Espec\IeC {\'\i }fico}{9}{section.1.2}}
\BKM@entry{id=8,dest={636861707465722E32},srcline={223}}{4A757374696669636174697661}
\@writefile{toc}{\contentsline {chapter}{\chapternumberline {2}Justificativa}{10}{chapter.2}}
\BKM@entry{id=9,dest={636861707465722E33},srcline={234}}{4465736372695C3334375C3334336F20646F2053697374656D61}
\@writefile{toc}{\contentsline {chapter}{\chapternumberline {3}Descri\IeC {\c c}\IeC {\~a}o do Sistema}{11}{chapter.3}}
\BKM@entry{id=10,dest={636861707465722E34},srcline={237}}{506C616E6F206465204D61726B6574696E67}
\@writefile{toc}{\contentsline {chapter}{\chapternumberline {4}Plano de Marketing}{12}{chapter.4}}
\BKM@entry{id=11,dest={636861707465722E35},srcline={240}}{52657175697369746F73}
\BKM@entry{id=12,dest={73656374696F6E2E352E31},srcline={243}}{52657175697369746F732046756E63696F6E616973}
\BKM@entry{id=13,dest={73656374696F6E2E352E32},srcline={246}}{52657175697369746F73204E5C3334336F2046756E63696F6E616973}
\@writefile{toc}{\contentsline {chapter}{\chapternumberline {5}Requisitos}{13}{chapter.5}}
\@writefile{toc}{\contentsline {section}{\numberline {5.1}Requisitos Funcionais}{13}{section.5.1}}
\@writefile{toc}{\contentsline {section}{\numberline {5.2}Requisitos N\IeC {\~a}o Funcionais}{13}{section.5.2}}
\BKM@entry{id=14,dest={636861707465722E36},srcline={251}}{446574616C68616D656E746F206465204361736F2064652055736F}
\@writefile{toc}{\contentsline {chapter}{\chapternumberline {6}Detalhamento de Caso de Uso}{14}{chapter.6}}
\@writefile{lot}{\contentsline {table}{\numberline {1}{\ignorespaces Caso de uso: Registrar usu\IeC {\'a}rio}}{14}{table.6.1}}
\@writefile{lot}{\contentsline {table}{\numberline {2}{\ignorespaces Caso de uso: Efetuar login}}{14}{table.6.2}}
\@writefile{lot}{\contentsline {table}{\numberline {3}{\ignorespaces Caso de uso: Cadastro dos produtos de venda tradicional}}{15}{table.6.3}}
\@writefile{lot}{\contentsline {table}{\numberline {4}{\ignorespaces Caso de uso: Realizar cadastros dos cat\IeC {\'a}logos de venda direta}}{15}{table.6.4}}
\@writefile{lot}{\contentsline {table}{\numberline {5}{\ignorespaces Caso de uso: Cadastrar clientes}}{16}{table.6.5}}
\@writefile{lot}{\contentsline {table}{\numberline {6}{\ignorespaces Caso de uso: Registrar vendas}}{16}{table.6.6}}
\@writefile{lot}{\contentsline {table}{\numberline {7}{\ignorespaces Caso de uso: Verificar estoque}}{17}{table.6.7}}
\@writefile{lot}{\contentsline {table}{\numberline {8}{\ignorespaces Caso de uso: Gerar relat\IeC {\'o}rio por quantidade, data de compra}}{17}{table.6.8}}
\@writefile{lot}{\contentsline {table}{\numberline {9}{\ignorespaces Caso de uso: Configurar forma pagamento}}{17}{table.6.9}}
\BKM@entry{id=15,dest={636861707465722E37},srcline={612}}{5669735C3334336F2046756E63696F6E616C}
\BKM@entry{id=16,dest={73656374696F6E2E372E31},srcline={614}}{4469616772616D61206465204361736F2064652055736F}
\BKM@entry{id=17,dest={73656374696F6E2E372E32},srcline={621}}{4469616772616D6120646520436C61737365}
\BKM@entry{id=18,dest={73756273656374696F6E2E372E322E31},srcline={622}}{417472696275746F73}
\@writefile{toc}{\contentsline {chapter}{\chapternumberline {7}Vis\IeC {\~a}o Funcional}{18}{chapter.7}}
\@writefile{toc}{\contentsline {section}{\numberline {7.1}Diagrama de Caso de Uso}{18}{section.7.1}}
\@writefile{lof}{\contentsline {figure}{\numberline {1}{\ignorespaces Diagrama de Caso de Uso}}{18}{figure.7.1}}
\newlabel{uc}{{\M@TitleReference {1}{Vis\IeC {\~a}o Funcional}}{18}{Diagrama de Caso de Uso}{figure.7.1}{}}
\@writefile{toc}{\contentsline {section}{\numberline {7.2}Diagrama de Classe}{19}{section.7.2}}
\@writefile{toc}{\contentsline {subsection}{\numberline {7.2.1}Atributos}{19}{subsection.7.2.1}}
\@writefile{lof}{\contentsline {figure}{\numberline {2}{\ignorespaces Atributos}}{19}{figure.7.2}}
\newlabel{atr}{{\M@TitleReference {2}{Vis\IeC {\~a}o Funcional}}{19}{Atributos}{figure.7.2}{}}
\BKM@entry{id=19,dest={73756273656374696F6E2E372E322E32},srcline={628}}{4D5C333531746F646F73}
\@writefile{toc}{\contentsline {subsection}{\numberline {7.2.2}M\IeC {\'e}todos}{20}{subsection.7.2.2}}
\@writefile{lof}{\contentsline {figure}{\numberline {3}{\ignorespaces M\IeC {\'e}todos}}{20}{figure.7.3}}
\newlabel{met}{{\M@TitleReference {3}{Vis\IeC {\~a}o Funcional}}{20}{Métodos}{figure.7.3}{}}
\BKM@entry{id=20,dest={636861707465722E38},srcline={635}}{436F6E7369646572615C3334375C33363565732046696E616973}
\citation{ibge1993}
\citation{babel}
\citation{talbot2012}
\bibdata{abntex2-options,referencias}
\@writefile{toc}{\contentsline {chapter}{\chapternumberline {8}Considera\IeC {\c c}\IeC {\~o}es Finais}{21}{chapter.8}}
\@writefile{brf}{\backcite{ibge1993}{{21}{8}{chapter.8}}}
\@writefile{brf}{\backcite{babel}{{21}{8}{chapter.8}}}
\@writefile{brf}{\backcite{talbot2012}{{21}{8}{chapter.8}}}
\BKM@entry{id=21,dest={73656374696F6E2A2E38},srcline={3}}{52656665725C3335326E63696173}
\bibcite{babel}{Braams 2008}
\bibciteEXPL{babel}{Braams}
\bibciteIMPL{babel}{BRAAMS}
\bibciteYEAR{babel}{2008}
\bibcite{ibge1993}{IBGE 1993}
\bibciteEXPL{ibge1993}{IBGE}
\bibciteIMPL{ibge1993}{IBGE}
\bibciteYEAR{ibge1993}{1993}
\bibcite{talbot2012}{Talbot 2012}
\bibciteEXPL{talbot2012}{Talbot}
\bibciteIMPL{talbot2012}{TALBOT}
\bibciteYEAR{talbot2012}{2012}
\bibstyle{abntex2-alf}
\@writefile{toc}{\contentsline {chapter}{Refer\^encias}{22}{section*.8}}
\memsetcounter{lastsheet}{22}
\memsetcounter{lastpage}{22}
