-------------------------------------------------------------------------------
Test set: br.com.vendadireta.util.HibernateUtilTest
-------------------------------------------------------------------------------
Tests run: 1, Failures: 0, Errors: 0, Skipped: 0, Time elapsed: 24.497 sec
